{
  "locked": false,
  "version": 2,
  "targets": {
    ".NETFramework,Version=v4.5.1": {
      "Utils/1.0.0": {
        "type": "package",
        "frameworkAssemblies": [
          "Microsoft.CSharp",
          "mscorlib",
          "System",
          "System.Core"
        ],
        "compile": {
          "lib/net451/Utils.dll": {}
        },
        "runtime": {
          "lib/net451/Utils.dll": {}
        }
      }
    },
    ".NETFramework,Version=v4.5.1/win7-x86": {
      "Utils/1.0.0": {
        "type": "package",
        "frameworkAssemblies": [
          "Microsoft.CSharp",
          "mscorlib",
          "System",
          "System.Core"
        ],
        "compile": {
          "lib/net451/Utils.dll": {}
        },
        "runtime": {
          "lib/net451/Utils.dll": {}
        }
      }
    }
  },
  "libraries": {
    "Utils/1.0.0": {
      "type": "package",
      "sha512": "gBeUDho1DCNY3hWyX+IEVpEZb1aXCbKdbYfSI2XwlquhBGwuk3B62Qe6aPHp54M9gY8zepeeYCR+j+kXkM+QYw==",
      "files": [
        "lib/net451/Utils.dll",
        "root/project.json",
        "root/project.lock.json",
        "Utils.1.0.0.nupkg",
        "Utils.1.0.0.nupkg.sha512",
        "Utils.nuspec"
      ]
    }
  },
  "projectFileDependencyGroups": {
    "": [
      "Utils >= 1.0.0"
    ],
    ".NETFramework,Version=v4.5.1": []
  }
}